command_korashi_mechanic = {
	alert_icon_gfx = GFX_alerticons_government_mechanics
	alert_icon_index = 17
	available = {
		tag = R62
		is_subject = no
	}

	powers = {
		korashi_reserves = {
			max = 100
			min = 0
			default = 41.062
			reset_on_new_ruler = no
			base_monthly_growth = -0.5
			show_before_interactions = yes
			reset_on_new_ruler = no
			scaled_modifier = {
				start_value = 50
				end_value = 100
				modifier = {
					stability_cost_modifier = -0.25
					land_maintenance_modifier = -0.25
				}
			}
			reverse_scaled_modifier = {
				start_value = 0
				end_value = 50
				modifier = {
					stability_cost_modifier = 0.25
					legitimacy = -2.5
				}
			}
			is_good = yes
		}
	}
	interactions = {
		command_estates_korashi_button = {
			icon = GFX_christian_japan_adm_button
			cooldown_years = 5
			trigger = {
				if = {
					limit = { has_country_flag = command_end_of_raheni_magic_flag }
					has_government_power = {
						mechanic_type = command_korashi_mechanic
						power_type = korashi_reserves
						value = 30
					}
				}
			}
			effect = {
				if = {
					limit = { has_country_flag = command_end_of_raheni_magic_flag }
					add_government_power = {
						mechanic_type = command_korashi_mechanic
						power_type = korashi_reserves
						value = -30
					}
					remove_advisor_by_category = ADM
					remove_advisor_by_category = DIP
					remove_advisor_by_category = MIL
					if = {
						limit = { has_estate = estate_boar_command }
						add_estate_loyalty = {
							estate = estate_boar_command
							loyalty = 10
						}
					}
					if = {
						limit = { has_estate = estate_lion_command }
						add_estate_loyalty = {
							estate = estate_lion_command
							loyalty = 10
						}
					}
					if = {
						limit = { has_estate = estate_wolf_command }
						add_estate_loyalty = {
							estate = estate_wolf_command
							loyalty = 10
						}
					}
					if = {
						limit = { has_estate = estate_dragon_command }
						add_estate_loyalty = {
							estate = estate_dragon_command
							loyalty = 10
						}
					}
					if = {
						limit = { has_estate = estate_elephant_command }
						add_estate_loyalty = {
							estate = estate_elephant_command
							loyalty = 10
						}
					}
					if = {
						limit = { has_estate = estate_tiger_command }
						add_estate_loyalty = {
							estate = estate_tiger_command
							loyalty = 10
						}
					}
					custom_tooltip = command_upper_brass_effect_tt
					hidden_effect = {
						random_list = {
							1 = { hire_advisor = { type = inquisitor skill = 3 discount = yes culture = wolf_command religion = ROOT } }
							1 = { hire_advisor = { type = artist skill = 3 discount = yes culture = wolf_command religion = ROOT } }
							1 = { hire_advisor = { type = master_of_mint skill = 3 discount = yes culture = wolf_command religion = ROOT } }
							1 = { hire_advisor = { type = natural_scientist skill = 3 discount = yes culture = wolf_command religion = ROOT } }
							1 = { hire_advisor = { type = philosopher skill = 3 discount = yes culture = wolf_command religion = ROOT } }
							1 = { hire_advisor = { type = theologian skill = 3 discount = yes culture = wolf_command religion = ROOT } }
							1 = { hire_advisor = { type = treasurer skill = 3 discount = yes culture = wolf_command religion = ROOT } }
						}
						random_list = {
							1 = {
								trigger = { colony = 1 }
								hire_advisor = { type = colonial_governor skill = 3 discount = yes culture = lion_command religion = ROOT }
							}
							1 = { hire_advisor = { type = diplomat skill = 3 discount = yes culture = lion_command religion = ROOT } }
							1 = { hire_advisor = { type = statesman skill = 3 discount = yes culture = lion_command religion = ROOT } }
							1 = {
								trigger = { num_of_ports = 1 }
								hire_advisor = { type = naval_reformer skill = 3 discount = yes culture = lion_command religion = ROOT }
							}
							1 = {
								trigger = {
									num_of_colonists = 1
									num_of_ports = 1
								}
								hire_advisor = { type = navigator skill = 3 discount = yes culture = lion_command religion = ROOT }
							}
							1 = { hire_advisor = { type = spymaster skill = 3 discount = yes culture = lion_command religion = ROOT } }
							1 = { hire_advisor = { type = trader skill = 3 discount = yes culture = lion_command religion = ROOT } }
						}
						random_list = {
							1 = { hire_advisor = { type = army_organiser skill = 3 discount = yes culture = boar_command religion = ROOT } }
							1 = { hire_advisor = { type = army_reformer skill = 3 discount = yes culture = boar_command religion = ROOT } }
							1 = { hire_advisor = { type = commandant skill = 3 discount = yes culture = boar_command religion = ROOT } }
							1 = { hire_advisor = { type = grand_captain skill = 3 discount = yes culture = boar_command religion = ROOT } }
							1 = { hire_advisor = { type = recruitmaster skill = 3 discount = yes culture = boar_command religion = ROOT } }
							1 = { hire_advisor = { type = fortification_expert skill = 3 discount = yes culture = boar_command religion = ROOT } }
							1 = { hire_advisor = { type = quartermaster skill = 3 discount = yes culture = boar_command religion = ROOT } }
						}
					}
				}
				else = {
					add_legitimacy = -10
					if = {
						limit = { has_estate = estate_boar_command }
						add_estate_loyalty = {
							estate = estate_boar_command
							loyalty = -10
						}
					}
					if = {
						limit = { has_estate = estate_lion_command }
						add_estate_loyalty = {
							estate = estate_lion_command
							loyalty = -10
						}
					}
					if = {
						limit = { has_estate = estate_wolf_command }
						add_estate_loyalty = {
							estate = estate_wolf_command
							loyalty = -10
						}
					}
					if = {
						limit = { has_estate = estate_dragon_command }
						add_estate_loyalty = {
							estate = estate_dragon_command
							loyalty = -10
						}
					}
					if = {
						limit = { has_estate = estate_elephant_command }
						add_estate_loyalty = {
							estate = estate_elephant_command
							loyalty = -10
						}
					}
					if = {
						limit = { has_estate = estate_tiger_command }
						add_estate_loyalty = {
							estate = estate_tiger_command
							loyalty = -10
						}
					}
					if = {
						limit = {
							has_country_modifier = command_the_korashi_secret #more restrictive check
							num_of_provinces_owned_or_owned_by_non_sovereign_subjects_with = {
								value = 20
								has_building =  mage_tower
							}
						}
						add_country_modifier = { name = command_diverting_war_resources_6 duration = 1825 }
					}
					else_if = {
						limit = {
							has_country_modifier = command_the_korashi_secret #more restrictive check
							num_of_provinces_owned_or_owned_by_non_sovereign_subjects_with = {
								value = 15
								has_building =  mage_tower
							}
						}
						add_country_modifier = { name = command_diverting_war_resources_5 duration = 1825 }
					}
					else_if = {
						limit = {
							has_country_modifier = command_the_korashi_secret #more restrictive check
							num_of_provinces_owned_or_owned_by_non_sovereign_subjects_with = {
								value = 10
								has_building =  mage_tower
							}
						}
						add_country_modifier = { name = command_diverting_war_resources_4 duration = 1825 }
					}
					else_if = {
						limit = {
							has_country_modifier = command_the_korashi_secret #more restrictive check
							num_of_provinces_owned_or_owned_by_non_sovereign_subjects_with = {
								value = 5
								has_building =  mage_tower
							}
						}
						add_country_modifier = { name = command_diverting_war_resources_3 duration = 1825 }
					}
					else_if = {
						limit = {
							has_country_modifier = command_the_korashi_secret #more restrictive check
							num_of_provinces_owned_or_owned_by_non_sovereign_subjects_with = {
								value = 1
								has_building =  mage_tower
							}
						}
						add_country_modifier = { name = command_diverting_war_resources_2 duration = 1825 }
					}
					else = { add_country_modifier = { name = command_diverting_war_resources_1 duration = 1825 } }
				}
			}
			ai_chance = {
				factor = 100
				modifier = {
					factor = 0
					OR = {
						AND = {
							NOT = { has_country_flag = command_end_of_raheni_magic_flag }
							has_government_power = {
								mechanic_type = command_korashi_mechanic
								power_type = korashi_reserves
								value = 70
							}
						}
						AND = {
							has_country_flag = command_end_of_raheni_magic_flag
							NOT = {
								AND = {
									has_government_power = {
										mechanic_type = command_korashi_mechanic
										power_type = korashi_reserves
										value = 100
									}
									employed_advisor = {
										is_discounted = no
									}
								}
							}
						}
					}
				}
			}
		}
		command_korashi_forge_button = {
			icon = GFX_christian_japan_dip_button
			cooldown_years = 5
			trigger = {
				if = {
					limit = { has_country_flag = command_end_of_raheni_magic_flag }
					has_government_power = {
						mechanic_type = command_korashi_mechanic
						power_type = korashi_reserves
						value = 1
					}
				}
				else = { always = no }
			}
			effect = {
				if = {
					limit = { has_country_flag = command_end_of_raheni_magic_flag }
					custom_tooltip = command_propagandize_korashi_effect_tt
					hidden_effect = {
						every_owned_province = {
							limit = { has_building = mage_tower }
							ROOT = {
								add_government_power = {
									mechanic_type = command_korashi_mechanic
									power_type = korashi_reserves
									value = -1
								}
								random_list = {
									1 = { add_adm_power = 5 }
									1 = { add_dip_power = 5 }
									1 = { add_mil_power = 5 }
								}
							}
						}
					}
				}
				else = {
					custom_tooltip = command_work_the_bellows_effect_tt
				}
			}
			ai_chance = { #I'm not sure what will happen if the AI starts doing this. Let's find out.
				factor = 100
			}
		}
		command_populace_korashi_button = {
			icon = GFX_christian_japan_mil_button
			cooldown_years = 5
			trigger = {
				if = {
					limit = { has_country_flag = command_end_of_raheni_magic_flag }
					has_government_power = {
						mechanic_type = command_korashi_mechanic
						power_type = korashi_reserves
						value = 30
					}
				}
			}
			effect = {
				if = {
					limit = { has_country_flag = command_end_of_raheni_magic_flag }
					add_government_power = {
						mechanic_type = command_korashi_mechanic
						power_type = korashi_reserves
						value = -30
					}
					custom_tooltip = command_find_mages_effect_tt
					hidden_effect = {
						every_owned_province = {
							limit = {
								NOT = {
									culture_group = hobgoblin
									culture_is_wuhyun = yes
								}
							}
							add_unrest = 5
						}
					}
					add_legitimacy_or_monarch_power = { VAL = 10 }
					add_estate_loyalty = {
						estate = estate_gerunanin
						loyalty = 10
					}
					add_stability_or_adm_power = yes
				}
				else = {
					add_army_professionalism = -0.02
					add_army_tradition = -5
					if = {
						limit = {
							has_country_modifier = command_the_korashi_secret #more restrictive check
							num_of_provinces_owned_or_owned_by_non_sovereign_subjects_with = {
								value = 20
								has_building =  mage_tower
							}
						}
						add_country_modifier = { name = command_novice_mage_hunters_6 duration = 1825 }
					}
					else_if = {
						limit = {
							has_country_modifier = command_the_korashi_secret #more restrictive check
							num_of_provinces_owned_or_owned_by_non_sovereign_subjects_with = {
								value = 15
								has_building =  mage_tower
							}
						}
						add_country_modifier = { name = command_novice_mage_hunters_5 duration = 1825 }
					}
					else_if = {
						limit = {
							has_country_modifier = command_the_korashi_secret #more restrictive check
							num_of_provinces_owned_or_owned_by_non_sovereign_subjects_with = {
								value = 10
								has_building =  mage_tower
							}
						}
						add_country_modifier = { name = command_novice_mage_hunters_4 duration = 1825 }
					}
					else_if = {
						limit = {
							has_country_modifier = command_the_korashi_secret #more restrictive check
							num_of_provinces_owned_or_owned_by_non_sovereign_subjects_with = {
								value = 5
								has_building =  mage_tower
							}
						}
						add_country_modifier = { name = command_novice_mage_hunters_3 duration = 1825 }
					}
					else_if = {
						limit = {
							has_country_modifier = command_the_korashi_secret #more restrictive check
							num_of_provinces_owned_or_owned_by_non_sovereign_subjects_with = {
								value = 1
								has_building =  mage_tower
							}
						}
						add_country_modifier = { name = command_novice_mage_hunters_2 duration = 1825 }
					}
					else = { add_country_modifier = { name = command_novice_mage_hunters_1 duration = 1825 } }
				}
			}
			ai_chance = {
				factor = 100
				modifier = {
					factor = 0
					OR = {
						AND = {
							NOT = { has_country_flag = command_end_of_raheni_magic_flag }
							has_government_power = {
								mechanic_type = command_korashi_mechanic
								power_type = korashi_reserves
								value = 50
							}
						}
						AND = {
							has_country_flag = command_end_of_raheni_magic_flag
							OR = {
								NOT = {
									has_government_power = {
										mechanic_type = command_korashi_mechanic
										power_type = korashi_reserves
										value = 100
									}
								}
								stability = 3
							}
						}
					}
				}
			}
		}
	}
}
