namespace = genie_cult

# Genie cult power gain
country_event = {
	id = genie_cult.1
	title = genie_cult.1.t
	desc = genie_cult.1.d
	picture = RELIGIOUS_CONVERSION_eventPicture
	
	hidden = yes
	
	trigger = {
		religion = genie_cult
		NOT = {
			has_country_modifier = genie_cult_power_gain_cooldown
		}
	}
	
	option = {
		name = genie_cult.1.a
		if = {
			limit = {
				NOT = {
					check_variable = {
						which = genie_cult_power_counter
						value = 10
					}
				}
			}
			change_variable = {
				which = genie_cult_power_counter
				value = 1
			}
		}
		add_country_modifier = {
			name = genie_cult_power_gain_cooldown
			duration = 1085
		}
	}
}

#Genie Cult Power Menu
country_event = {
	id = genie_cult.3
	title = genie_cult.3.t
	desc = genie_cult.3.d
	picture = RELIGIOUS_CONVERSION_eventPicture
	
	is_triggered_only = yes

	option = {
		ai_chance = {
			factor = 15
			modifier = {
				factor = 0
				NOT = {
					check_variable = {
						which = genie_cult_power_counter
						value = 1
					}
				}
			}
		}
		name = genie_cult.3.a
		trigger = {
			custom_trigger_tooltip = {
				tooltip = genie_cult_has_at_least_1_power_tt
				check_variable = {
					which = genie_cult_power_counter
					value = 1
				}
			}
		}
		country_event = {
			id = genie_cult.4
		}
	}

	option = {
		ai_chance = {
			factor = 20
			modifier = {
				factor = 0
				NOT = {
					check_variable = {
						which = genie_cult_power_counter
						value = 2
					}
				}
			}
		}
		name = genie_cult.3.b
		trigger = {
			custom_trigger_tooltip = {
				tooltip = genie_cult_has_at_least_2_power_tt
				check_variable = {
					which = genie_cult_power_counter
					value = 2
				}
			}
		}
		country_event = {
			id = genie_cult.5
		}
	}

	option = {
		ai_chance = {
			factor = 30
			modifier = {
				factor = 0
				NOT = {
					check_variable = {
						which = genie_cult_power_counter
						value = 3
					}
				}
			}
		}
		name = genie_cult.3.c
		trigger = {
			custom_trigger_tooltip = {
				tooltip = genie_cult_has_at_least_3_power_tt
				check_variable = {
					which = genie_cult_power_counter
					value = 3
				}
			}
		}
		country_event = {
			id = genie_cult.6
		}
	}

	option = {
		ai_chance = {
			factor = 40
			modifier = {
				factor = 0
				NOT = {
					check_variable = {
						which = genie_cult_power_counter
						value = 4
					}
				}
			}
		}
		name = genie_cult.3.dd
		trigger = {
			custom_trigger_tooltip = {
				tooltip = genie_cult_has_at_least_4_power_tt
				check_variable = {
					which = genie_cult_power_counter
					value = 4
				}
			}
		}
		country_event = {
			id = genie_cult.7
		}
	}

	option = {
		ai_chance = {
			factor = 10
			modifier = {
				factor = 4
				NOT = {
					check_variable = {
						which = genie_cult_power_counter
						value = 2
					}
				}
			}
			modifier = {
				factor = 3
				NOT = {
					check_variable = {
						which = genie_cult_power_counter
						value = 3
					}
				}
			}
			modifier = {
				factor = 2
				NOT = {
					check_variable = {
						which = genie_cult_power_counter
						value = 4
					}
				}
			}
		}
		name = genie_cult.3.e
		clr_country_flag = genie_cult_power_menu_open
	}
}

#Power Incantations (Cost 1)
country_event = {
	id = genie_cult.4
	title = genie_cult.4.t
	desc = genie_cult.4.d
	picture = RELIGIOUS_CONVERSION_eventPicture
	
	is_triggered_only = yes

	option = {
		ai_chance = {
			factor = 10
		}
		name = genie_cult.4.a
		add_country_modifier = {
			name = warmth_of_life
			duration = 1825
		}
		clr_country_flag = genie_cult_power_menu_open
		genie_cult_power_loss = { value = 1 }
		genie_cult_cooldown = yes
	}

	option = {
		ai_chance = {
			factor = 10
		}
		name = genie_cult.4.b
		add_country_modifier = {
			name = guiding_sands
			duration = 1825
		}
		clr_country_flag = genie_cult_power_menu_open
		genie_cult_power_loss = { value = 1 }
		genie_cult_cooldown = yes
	}

	option = {
		trigger = {
			ai = no
		}
		name = genie_cult.4.c
		country_event = {
			id = genie_cult.3
		}
	}
}

#Charge Incantations (Cost 2)
country_event = {
	id = genie_cult.5
	title = genie_cult.5.t
	desc = genie_cult.5.d
	picture = RELIGIOUS_CONVERSION_eventPicture
	
	is_triggered_only = yes

	option = {
		ai_chance = {
			factor = 10
		}
		name = genie_cult.5.a
		add_country_modifier = {
			name = lightrocks
			duration = 1825
		}
		clr_country_flag = genie_cult_power_menu_open
		genie_cult_power_loss = { value = 2 }
		genie_cult_cooldown = yes
	}

	option = {
		ai_chance = {
			factor = 10
		}
		name = genie_cult.5.b
		add_country_modifier = {
			name = armor_off
			duration = 1825
		}
		clr_country_flag = genie_cult_power_menu_open
		genie_cult_power_loss = { value = 2 }
		genie_cult_cooldown = yes
	}

	option = {
		ai_chance = {
			factor = 10
		}
		name = genie_cult.5.c
		add_country_modifier = {
			name = battle_fervor
			duration = 1825
		}
		clr_country_flag = genie_cult_power_menu_open
		genie_cult_power_loss = { value = 2 }
		genie_cult_cooldown = yes
	}

	option = {
		trigger = {
			ai = no
		}
		name = genie_cult.5.dd
		country_event = {
			id = genie_cult.3
		}
	}
}

#Charge Incantations (Cost 3)
country_event = {
	id = genie_cult.6
	title = genie_cult.6.t
	desc = genie_cult.6.d
	picture = RELIGIOUS_CONVERSION_eventPicture
	
	is_triggered_only = yes

	immediate = {
		hidden_effect = {
			random_owned_province = {
				limit = {
					NOT = { is_capital_of = ROOT }
					development = 11
				}
				save_event_target_as = emerald_splash_target
			}
			random_owned_province = {
				limit = {
					has_port = yes
				}
				save_event_target_as = restoration_of_fallen_crafts_target
			}
		}
	}

	option = {
		name = genie_cult.6.a
		ai_chance = {
			factor = 10
		}
		trigger = {
			OR = {
				has_adopted_cult = jannu_cult
				has_adopted_cult = tanizuland_cult
			}
		}
		add_country_modifier = {
			name = perfection_of_home
			duration = 1825
		}
		clr_country_flag = genie_cult_power_menu_open
		genie_cult_power_loss = { value = 3 }
		genie_cult_cooldown = yes
	}

	option = {
		name = genie_cult.6.b
		ai_chance = {
			factor = 10
		}
		trigger = {
			OR = {
				has_adopted_cult = jannu_cult
				has_adopted_cult = tanizuland_cult
			}
		}
		if = {
			limit = { has_saved_event_target = emerald_splash_target }
			event_target:emerald_splash_target = {
				add_base_tax = -1
				add_base_production = -1
				add_base_manpower = -1
				random_list = {
					1 = {
						change_trade_goods = gems
					}
					19 = {
					}
				}
			}
			add_years_of_income = 0.5
		}
		else = {
			custom_tooltip = emeral_splash_tt
		}
		clr_country_flag = genie_cult_power_menu_open
		genie_cult_power_loss = { value = 3 }
		genie_cult_cooldown = yes
	}

	option = {
		name = genie_cult.6.c
		ai_chance = {
			factor = 10
		}
		trigger = {
			OR = {
				has_adopted_cult = naqi_cult
				has_adopted_cult = fidiya_cult
			}
		}
		add_country_modifier = {
			name = blaze_of_glory
			duration = 1825
		}
		clr_country_flag = genie_cult_power_menu_open
		genie_cult_power_loss = { value = 3 }
		genie_cult_cooldown = yes
	}

	option = {
		name = genie_cult.6.dd
		ai_chance = {
			factor = 10
		}
		trigger = {
			OR = {
				has_adopted_cult = naqi_cult
				has_adopted_cult = fidiya_cult
			}
		}
		custom_tooltip = fire_wall_tt
		every_owned_province = {
			limit = {
				has_fort_building_trigger = yes
			}
			add_province_modifier = {
				name = fire_wall
				duration = 1825
			}
		}
		clr_country_flag = genie_cult_power_menu_open
		genie_cult_power_loss = { value = 3 }
		genie_cult_cooldown = yes
	}

	option = {
		name = genie_cult.6.e
		ai_chance = {
			factor = 10
		}
		trigger = {
			OR = {
				has_adopted_cult = ardimya_cult
				has_adopted_cult = brasan_cult
				has_adopted_cult = al_dimiryat_cult
				has_adopted_cult = grand_sultan_cult
			}
			manpower = 3
		}
		add_manpower = -3
		custom_tooltip = due_judgement_tt
		hidden_effect = {
			random_list = {
				1 = {
					generate_scaled_advisor_of_type_and_cost_effect = { type = philosopher cost_multiplier = 0.25 }
				}
				1 = {
					generate_scaled_advisor_of_type_and_cost_effect = { type = natural_scientist cost_multiplier = 0.25 }
				}
				1 = {
					generate_scaled_advisor_of_type_and_cost_effect = { type = artist cost_multiplier = 0.25 }
				}
				1 = {
					generate_scaled_advisor_of_type_and_cost_effect = { type = treasurer cost_multiplier = 0.25 }
				}
				1 = {
					generate_scaled_advisor_of_type_and_cost_effect = { type = theologian cost_multiplier = 0.25 }
				}
				1 = {
					generate_scaled_advisor_of_type_and_cost_effect = { type = master_of_mint cost_multiplier = 0.25 }
				}
				1 = {
					generate_scaled_advisor_of_type_and_cost_effect = { type = inquisitor cost_multiplier = 0.25 }
				}
				1 = {
					generate_scaled_advisor_of_type_and_cost_effect = { type = statesman cost_multiplier = 0.25 }
				}
				1 = {
					generate_scaled_advisor_of_type_and_cost_effect = { type = naval_reformer cost_multiplier = 0.25 }
				}
				1 = {
					generate_scaled_advisor_of_type_and_cost_effect = { type = trader cost_multiplier = 0.25 }
				}
				1 = {
					generate_scaled_advisor_of_type_and_cost_effect = { type = spymaster cost_multiplier = 0.25 }
				}
				1 = {
					generate_scaled_advisor_of_type_and_cost_effect = { type = diplomat cost_multiplier = 0.25 }
				}
				1 = {
					generate_scaled_advisor_of_type_and_cost_effect = { type = navigator cost_multiplier = 0.25 }
				}
				1 = {
					generate_scaled_advisor_of_type_and_cost_effect = { type = army_reformer cost_multiplier = 0.25 }
				}
				1 = {
					generate_scaled_advisor_of_type_and_cost_effect = { type = army_organiser cost_multiplier = 0.25 }
				}
				1 = {
					generate_scaled_advisor_of_type_and_cost_effect = { type = commandant cost_multiplier = 0.25 }
				}
				1 = {
					generate_scaled_advisor_of_type_and_cost_effect = { type = quartermaster cost_multiplier = 0.25 }
				}
				1 = {
					generate_scaled_advisor_of_type_and_cost_effect = { type = recruitmaster cost_multiplier = 0.25 }
				}
				1 = {
					generate_scaled_advisor_of_type_and_cost_effect = { type = fortification_expert cost_multiplier = 0.25 }
				}
				1 = {
					generate_scaled_advisor_of_type_and_cost_effect = { type = grand_captain cost_multiplier = 0.25 }
				}
				1 = {
					generate_scaled_advisor_of_type_and_cost_effect = { type = court_mage cost_multiplier = 0.25 }
				}
			}
		}
		if = {
			limit = { government_rank = 2 }
			add_stability = 2
		}
		else = {
			add_stability = 1
		}
		clr_country_flag = genie_cult_power_menu_open
		genie_cult_power_loss = { value = 3 }
		genie_cult_cooldown = yes
	}

	option = {
		name = genie_cult.6.f
		ai_chance = {
			factor = 10
		}
		trigger = {
			OR = {
				has_adopted_cult = ardimya_cult
				has_adopted_cult = brasan_cult
				has_adopted_cult = al_dimiryat_cult
				has_adopted_cult = grand_sultan_cult
			}
		}
		add_country_modifier = {
			name = holy_winds
			duration = 1825
		}
		clr_country_flag = genie_cult_power_menu_open
		genie_cult_power_loss = { value = 3 }
		genie_cult_cooldown = yes
	}

	option = {
		name = genie_cult.6.g
		ai_chance = {
			factor = 10
		}
		trigger = {
			OR = {
				has_adopted_cult = dakinshi_cult
				has_adopted_cult = vyzemby_cult
			}
			any_owned_province = {
				has_port = yes
			}
		}
		add_country_modifier = {
			name = restoration_of_fallen_crafts
			duration = 3650
		}
		event_target:restoration_of_fallen_crafts_target = {
			heavy_ship = ROOT
			heavy_ship = ROOT
			heavy_ship = ROOT
			heavy_ship = ROOT
			heavy_ship = ROOT
			heavy_ship = ROOT
			heavy_ship = ROOT
			heavy_ship = ROOT
			heavy_ship = ROOT
			heavy_ship = ROOT
		}
		clr_country_flag = genie_cult_power_menu_open
		genie_cult_power_loss = { value = 3 }
		genie_cult_cooldown = yes
	}

	option = {
		name = genie_cult.6.h
		ai_chance = {
			factor = 10
		}
		trigger = {
			OR = {
				has_adopted_cult = dakinshi_cult
				has_adopted_cult = vyzemby_cult
			}
		}
		if = {
			limit = {
				home_trade_node = {
					trade_share = {
						country = ROOT
						share = 80
					}
				}
			}
			add_country_modifier = {
				name = siren_chant_5
				duration = 1825
			}
		}
		else_if = {
			limit = {
				home_trade_node = {
					trade_share = {
						country = ROOT
						share = 60
					}
				}
			}
			add_country_modifier = {
				name = siren_chant_4
				duration = 1825
			}
		}
		else_if = {
			limit = {
				home_trade_node = {
					trade_share = {
						country = ROOT
						share = 40
					}
				}
			}
			add_country_modifier = {
				name = siren_chant_3
				duration = 1825
			}
		}
		else_if = {
			limit = {
				home_trade_node = {
					trade_share = {
						country = ROOT
						share = 20
					}
				}
			}
			add_country_modifier = {
				name = siren_chant_2
				duration = 1825
			}
		}
		else = {
			add_country_modifier = {
				name = siren_chant_1
				duration = 1825
			}
		}
		clr_country_flag = genie_cult_power_menu_open
		genie_cult_power_loss = { value = 3 }
		genie_cult_cooldown = yes
	}

	option = {
		name = genie_cult.6.i
		trigger = {
			ai = no
		}
		country_event = {
			id = genie_cult.3
		}
	}
}

#Charge Incantations (Cost 4)
country_event = {
	id = genie_cult.7
	title = genie_cult.7.t
	desc = genie_cult.7.d
	picture = RELIGIOUS_CONVERSION_eventPicture
	
	is_triggered_only = yes

	option = {
		name = genie_cult.7.a
		ai_chance = {
			factor = 10
			modifier = {
				factor = 5
				NOT = {
					manpower_percentage = 0.3
				}
			}
		}
		trigger = {
			has_adopted_cult = vyzemby_cult
		}
		custom_tooltip = preservation_of_life_tt
		hidden_effect = {
			country_event = {
				id = genie_cult.8
				days = 365
			}
			country_event = {
				id = genie_cult.8
				days = 730
			}
			country_event = {
				id = genie_cult.8
				days = 1095
			}
			country_event = {
				id = genie_cult.8
				days = 1460
			}
			country_event = {
				id = genie_cult.8
				days = 1825
			}
		}
		clr_country_flag = genie_cult_power_menu_open
		genie_cult_power_loss = { value = 4 }
		genie_cult_cooldown = yes
	}

	option = {
		name = genie_cult.7.b
		ai_chance = {
			factor = 10
			modifier = {
				factor = 5
				num_of_owned_provinces_with = {
					value = 10
					NOT = {
						OR = {
							has_tax_building_trigger = yes
							has_production_building_trigger = yes
							has_trade_building_trigger = yes
							has_courthouse_building_trigger = yes
							has_manpower_building_trigger = yes
						}
					}
				}
			}
		}
		trigger = {
			has_adopted_cult = horasesh_cult
		}
		custom_tooltip = holy_buildings_tt
		set_country_flag = holy_buildings_active
		hidden_effect = {
			country_event = {
				id = genie_cult.9
				days = 1825
			}
		}
		clr_country_flag = genie_cult_power_menu_open
		genie_cult_power_loss = { value = 4 }
		genie_cult_cooldown = yes
	}

	option = {
		name = genie_cult.7.c
		ai_chance = {
			factor = 10
			modifier = {
				factor = 5
				is_at_war = yes
			}
		}
		trigger = {
			has_adopted_cult = darbanar_cult
		}
		country_event = {
			id = genie_cult.10
		}
		clr_country_flag = genie_cult_power_menu_open
		genie_cult_power_loss = { value = 4 }
		genie_cult_cooldown = yes
	}

	option = {
		name = genie_cult.7.dd
		ai_chance = {
			factor = 10
			modifier = {
				factor = 1.3
				NOT = {
					AND = {
						adm = 3
						OR = {
							dip = 3
							mil = 3
						}
					}
				}
			}
			modifier = {
				factor = 1.3
				NOT = {
					AND = {
						dip = 3
						OR = {
							adm = 3
							mil = 3
						}
					}
				}
			}
			modifier = {
				factor = 1.3
				NOT = {
					AND = {
						mil = 3
						OR = {
							dip = 3
							adm = 3
						}
					}
				}
			}
			modifier = {
				factor = 0
				AND = {
					adm = 4
					dip = 4
					mil = 4
				}
			}
			modifier = {
				factor = 0.8
				adm = 6
			}
			modifier = {
				factor = 0.8
				dip = 6
			}
			modifier = {
				factor = 0.8
				mil = 6
			}
		}
		trigger = {
			has_adopted_cult = dakinshi_cult
		}
		kill_ruler = yes
		add_stability = 1
		add_adm_power = 25
		add_dip_power = 25
		add_mil_power = 25
		clr_country_flag = genie_cult_power_menu_open
		genie_cult_power_loss = { value = 4 }
		genie_cult_cooldown = yes
	}

	option = {
		name = genie_cult.7.e
		ai_chance = {
			factor = 10
			modifier = {
				factor = 5
				AND = {
					is_at_war = yes
					NOT = {
						manpower_percentage = 0.3
					}
				}
			}
		}
		trigger = {
			has_adopted_cult = brasan_cult
		}
		custom_tooltip = renewed_emancipation_tt
		set_country_flag = renewed_emancipation_active
		clr_country_flag = genie_cult_power_menu_open
		genie_cult_power_loss = { value = 4 }
		genie_cult_cooldown = yes
	}

	option = {
		name = genie_cult.7.f
		ai_chance = {
			factor = 10
			modifier = {
				factor = 5
				OR = {
					legitimacy = 80
					prestige = 70
					diplomatic_reputation = 2
				}
			}
			modifier = {
				factor = 0
				NOT = {
					legitimacy = 80
					prestige = 70
					diplomatic_reputation = 2
				}
			}
		}
		trigger = {
			has_adopted_cult = al_dimiryat_cult
		}
		custom_tooltip = making_of_a_king_adm_tt
		tooltip = {
			increase_ruler_adm_effect = yes
		}
		custom_tooltip = making_of_a_king_dip_tt
		tooltip = {
			increase_ruler_dip_effect = yes
		}
		custom_tooltip = making_of_a_king_mil_tt
		tooltip = {
			increase_ruler_mil_effect = yes
		}
		hidden_effect = {
			if = {
				limit = { legitimacy = 80 }
				increase_ruler_adm_effect = yes
			}
			if = {
				limit = { diplomatic_reputation = 2 }
				increase_ruler_dip_effect = yes
			}
			if = {
				limit = { prestige = 70 }
				increase_ruler_mil_effect = yes
			}
		}
		clr_country_flag = genie_cult_power_menu_open
		genie_cult_power_loss = { value = 4 }
		genie_cult_cooldown = yes
	}

	option = {
		name = genie_cult.7.g
		ai_chance = {
			factor = 10
			modifier = {
				factor = 5
				ruler_has_bad_personality = yes
			}
			modifier = {
				factor = 0
				NOT = {
					ruler_has_bad_personality = yes
				}
			}
		}
		trigger = {
			has_adopted_cult = jannu_cult
		}
		custom_tooltip = globetrotter_tt
		hidden_effect = {
			if = {
				limit = {
					ruler_has_bad_personality = yes
				}
				remove_random_bad_ruler_personality = yes
				set_variable = {
					which = personality_counter_variable
					value = 1
				}
				if = {
					limit = {
						ruler_has_bad_personality = yes
					}
					remove_random_bad_ruler_personality = yes
					change_variable = {
						which = personality_counter_variable
						value = 1
					}
					if = {
						limit = {
							ruler_has_bad_personality = yes
						}
						remove_random_bad_ruler_personality = yes
						set_variable = {
							which = personality_counter_variable
							value = 1
						}
					}
				}
			}
			if = {
				limit = {
					check_variable = {
						which = personality_counter_variable
						value = 1
					}
				}
				give_random_good_ruler_personality = yes
				if = {
					limit = {
						check_variable = {
							which = personality_counter_variable
							value = 1
						}
					}
					give_random_ruler_personality = yes
					if = {
						limit = {
							check_variable = {
								which = personality_counter_variable
								value = 1
							}
						}
						give_random_ruler_personality = yes
					}
				}
			}
		}
		clr_country_flag = genie_cult_power_menu_open
		genie_cult_power_loss = { value = 4 }
		genie_cult_cooldown = yes
	}

	option = {
		name = genie_cult.7.h
		ai_chance = {
			factor = 10
			modifier = {
				factor = 5
				is_at_war = yes
			}
		}
		trigger = {
			has_adopted_cult = tanizuland_cult
		}
		custom_tooltip = earthshaker_tt
		hidden_effect = {
			every_province = {
				limit = {
					sieged_by = ROOT
				}
				change_controller = ROOT
				add_province_modifier = {
					name = scorched_earth
					duration = 1825
				}
			}
		}
		clr_country_flag = genie_cult_power_menu_open
		genie_cult_power_loss = { value = 4 }
		genie_cult_cooldown = yes
	}

	option = {
		name = genie_cult.7.i
		ai_chance = {
			factor = 10
			modifier = {
				factor = 5
				is_at_war = yes
			}
		}
		trigger = {
			has_adopted_cult = fidiya_cult
		}
		custom_tooltip = divine_sandstorm_tt
		add_country_modifier = {
			name = divine_sandstorm_movement
			duration = 183
		}
		country_event = {
			id = genie_cult.11
			days = 183
		}
		clr_country_flag = genie_cult_power_menu_open
		genie_cult_power_loss = { value = 4 }
		genie_cult_cooldown = yes
	}

	option = {
		name = genie_cult.7.j
		ai_chance = {
			factor = 10
		}
		trigger = {
			has_adopted_cult = grand_sultan_cult
		}
		add_ruler_modifier = {
			name = power_of_an_epitaph
		}
		clr_country_flag = genie_cult_power_menu_open
		genie_cult_power_loss = { value = 4 }
		genie_cult_cooldown = yes
	}

	option = {
		name = genie_cult.7.k
		ai_chance = {
			factor = 10
			modifier = {
				factor = 5
				NOT = {
					religious_unity = 0.7
				}
			}
		}
		trigger = {
			has_adopted_cult = naqi_cult
		}
		add_country_modifier = {
			name = flaying_the_mind
			duration = 1825
		}
		clr_country_flag = genie_cult_power_menu_open
		genie_cult_power_loss = { value = 4 }
		genie_cult_cooldown = yes
	}

	option = {
		name = genie_cult.7.l
		ai_chance = {
			factor = 10
		}
		trigger = {
			has_adopted_cult = ardimya_cult
		}
		add_war_exhaustion = -20
		add_country_modifier = {
			name = ardimyan_rites
			duration = 5475
		}
		clr_country_flag = genie_cult_power_menu_open
		genie_cult_power_loss = { value = 4 }
		genie_cult_cooldown = yes
	}

	option = {
		name = genie_cult.7.m
		trigger = {
			ai = no
		}
		country_event = {
			id = genie_cult.3
		}
	}
}

#Preservation Of Life
country_event = {
	id = genie_cult.8
	title = genie_cult.8.t
	desc = genie_cult.8.d
	picture = RELIGIOUS_CONVERSION_eventPicture
	
	is_triggered_only = yes

	option = {
		name = genie_cult.8.a
		add_manpower = 5
		add_sailors = 1000
	}
}

#Holy buildings removal
country_event = {
	id = genie_cult.9
	title = genie_cult.9.t
	desc = genie_cult.9.d
	picture = RELIGIOUS_CONVERSION_eventPicture
	
	hidden = yes
	is_triggered_only = yes

	option = {
		name = genie_cult.9.a
		clr_country_flag = holy_buildings_active
	}
}

#Red Bind
country_event = {
	id = genie_cult.10
	title = genie_cult.10.t
	desc = genie_cult.10.d
	picture = RELIGIOUS_CONVERSION_eventPicture
	
	is_triggered_only = yes

	option = {
		name = genie_cult.10.a
		custom_tooltip = red_bind_tt
		hidden_effect = {
			every_country = {
				limit = {
					war_with = ROOT
				}
				add_country_modifier = {
					name = red_bind
					duration = 90
				}
			}
			set_variable = {
				which = scorched_counter
				value = 10
			}
			while = {
				limit = {
					any_owned_province = {
						has_province_modifier = scorched_earth
					}
					check_variable = {
						which = scorched_counter
						value = 1
					}
				}
				random_owned_province = {
					limit = {
						has_province_modifier = scorched_earth
						NOT = {
							has_province_modifier = red_bind_defender
						}
					}
					add_province_modifier = {
						name = red_bind_defender
						duration = 365
					}
				}
				subtract_variable = {
					which = scorched_counter
					value = 1
				}
			}
		}
	}
}

#Divine Sandstorm second effect
country_event = {
	id = genie_cult.11
	title = genie_cult.11.t
	desc = genie_cult.11.d
	picture = RELIGIOUS_CONVERSION_eventPicture
	
	is_triggered_only = yes

	immediate = {
		hidden_effect = {
			add_country_modifier = {
				name = divine_sandstorm_shock
				duration = 182
			}
		}
	}

	option = {
		name = genie_cult.11.a
		tooltip = {
			add_country_modifier = {
				name = divine_sandstorm_shock
				duration = 182
			}
		}
	}
}

#Diplomacy unlocking of cults
country_event = {
	id = genie_cult.12
	title = genie_cult.12.t
	desc = genie_cult.12.d
	picture = RELIGIOUS_CONVERSION_eventPicture
	
	is_triggered_only = yes

	trigger = {
		religion = genie_cult
		any_known_country = {
			religion = genie_cult
			has_opinion = {
				who = ROOT
				value = 190
			}
			OR = {
				AND = {
					ROOT = { NOT = { has_unlocked_cult = brasan_cult } }
					has_unlocked_cult = brasan_cult
				}
				AND = {
					ROOT = { NOT = { has_unlocked_cult = naqi_cult } }
					has_unlocked_cult = naqi_cult
				}
				AND = {
					ROOT = { NOT = { has_unlocked_cult = al_dimiryat_cult } }
					has_unlocked_cult = al_dimiryat_cult
				}
				AND = {
					ROOT = { NOT = { has_unlocked_cult = grand_sultan_cult } }
					has_unlocked_cult = grand_sultan_cult
				}
				AND = {
					ROOT = { NOT = { has_unlocked_cult = dakinshi_cult } }
					has_unlocked_cult = dakinshi_cult
				}
				AND = {
					ROOT = { NOT = { has_unlocked_cult = fidiya_cult } }
					has_unlocked_cult = fidiya_cult
				}
				AND = {
					ROOT = { NOT = { has_unlocked_cult = jannu_cult } }
					has_unlocked_cult = jannu_cult
				}
				AND = {
					ROOT = { NOT = { has_unlocked_cult = tanizuland_cult } }
					has_unlocked_cult = tanizuland_cult
				}
				AND = {
					ROOT = { NOT = { has_unlocked_cult = vyzemby_cult } }
					has_unlocked_cult = vyzemby_cult
				}
				AND = {
					ROOT = { NOT = { has_unlocked_cult = darbanar_cult } }
					has_unlocked_cult = darbanar_cult
				}
				AND = {
					ROOT = { NOT = { has_unlocked_cult = horasesh_cult } }
					has_unlocked_cult = horasesh_cult
				}
			}
		}
	}

	#Unlocking Cult of Brasan
	option = {
		name = genie_cult.12.a
		trigger = {
			NOT = { has_unlocked_cult = brasan_cult }
			any_known_country = {
				has_unlocked_cult = brasan_cult
				has_opinion = {
					who = ROOT
					value = 190
				}
			}
		}
		unlock_cult = brasan_cult
	}

	#Unlocking Cult of Naqi
	option = {
		name = genie_cult.12.b
		trigger = {
			NOT = { has_unlocked_cult = naqi_cult }
			any_known_country = {
				has_unlocked_cult = naqi_cult
				has_opinion = {
					who = ROOT
					value = 190
				}
			}
		}
		unlock_cult = naqi_cult
	}

	#Unlocking Cult of Al-Dimiryat
	option = {
		name = genie_cult.12.c
		trigger = {
			NOT = { has_unlocked_cult = al_dimiryat_cult }
			any_known_country = {
				has_unlocked_cult = al_dimiryat_cult
				has_opinion = {
					who = ROOT
					value = 190
				}
			}
		}
		unlock_cult = al_dimiryat_cult
	}

	#Unlocking Cult of The Grand Sultan
	option = {
		name = genie_cult.12.dd
		trigger = {
			NOT = { has_unlocked_cult = grand_sultan_cult }
			any_known_country = {
				has_unlocked_cult = grand_sultan_cult
				has_opinion = {
					who = ROOT
					value = 190
				}
			}
		}
		unlock_cult = grand_sultan_cult
	}

	#Unlocking Cult of Dakinshi
	option = {
		name = genie_cult.12.e
		trigger = {
			NOT = { has_unlocked_cult = dakinshi_cult }
			any_known_country = {
				has_unlocked_cult = dakinshi_cult
				has_opinion = {
					who = ROOT
					value = 190
				}
			}
		}
		unlock_cult = dakinshi_cult
	}

	#Unlocking Cult of Fidiya
	option = {
		name = genie_cult.12.f
		trigger = {
			NOT = { has_unlocked_cult = fidiya_cult }
			any_known_country = {
				has_unlocked_cult = fidiya_cult
				has_opinion = {
					who = ROOT
					value = 190
				}
			}
		}
		unlock_cult = fidiya_cult
	}

	#Unlocking Cult of Jannu
	option = {
		name = genie_cult.12.g
		trigger = {
			NOT = { has_unlocked_cult = jannu_cult }
			any_known_country = {
				has_unlocked_cult = jannu_cult
				has_opinion = {
					who = ROOT
					value = 190
				}
			}
		}
		unlock_cult = jannu_cult
	}

	#Unlocking Cult of Tanizuland
	option = {
		name = genie_cult.12.h
		trigger = {
			NOT = { has_unlocked_cult = tanizuland_cult }
			any_known_country = {
				has_unlocked_cult = tanizuland_cult
				has_opinion = {
					who = ROOT
					value = 190
				}
			}
		}
		unlock_cult = tanizuland_cult
	}

	#Unlocking Cult of Vyzemby
	option = {
		name = genie_cult.12.i
		trigger = {
			NOT = { has_unlocked_cult = vyzemby_cult }
			any_known_country = {
				has_unlocked_cult = vyzemby_cult
				has_opinion = {
					who = ROOT
					value = 190
				}
			}
		}
		unlock_cult = vyzemby_cult
	}

	#Unlocking Cult of Darbanar
	option = {
		name = genie_cult.12.j
		trigger = {
			NOT = { has_unlocked_cult = darbanar_cult }
			any_known_country = {
				has_unlocked_cult = darbanar_cult
				has_opinion = {
					who = ROOT
					value = 190
				}
			}
		}
		unlock_cult = darbanar_cult
	}

	#Unlocking Cult of Horasesh
	option = {
		name = genie_cult.12.k
		trigger = {
			NOT = { has_unlocked_cult = horasesh_cult }
			any_known_country = {
				has_unlocked_cult = horasesh_cult
				has_opinion = {
					who = ROOT
					value = 190
				}
			}
		}
		unlock_cult = horasesh_cult
	}
}

#Unlocking Cult of Brasan
country_event = {
	id = genie_cult.101
	title = genie_cult.101.t
	desc = genie_cult.101.d
	picture = TRIBES_MEETING_eventPicture

	is_triggered_only = yes
	trigger = {
		NOT = { has_unlocked_cult = brasan_cult }
	}

	option = {
		name = genie_cult.101.a
		unlock_cult = brasan_cult
	}
}

#Unlocking Cult of Naqi
country_event = {
	id = genie_cult.102
	title = genie_cult.102.t
	desc = genie_cult.102.d
	picture = TRIBES_MEETING_eventPicture

	is_triggered_only = yes
	trigger = {
		NOT = { has_unlocked_cult = naqi_cult }
	}

	option = {
		name = genie_cult.102.a
		unlock_cult = naqi_cult
	}
}

#Unlocking Cult of Al-Dimiryat
country_event = {
	id = genie_cult.103
	title = genie_cult.103.t
	desc = genie_cult.103.d
	picture = TRIBES_MEETING_eventPicture

	is_triggered_only = yes
	trigger = {
		NOT = { has_unlocked_cult = al_dimiryat_cult }
	}

	option = {
		name = genie_cult.103.a
		unlock_cult = al_dimiryat_cult
	}
}

#Unlocking Cult of The Grand Sultan
country_event = {
	id = genie_cult.104
	title = genie_cult.104.t
	desc = genie_cult.104.d
	picture = TRIBES_MEETING_eventPicture

	is_triggered_only = yes
	trigger = {
		NOT = { has_unlocked_cult = grand_sultan_cult }
	}

	option = {
		name = genie_cult.104.a
		unlock_cult = grand_sultan_cult
	}
}

#Unlocking Cult of Dakinshi
country_event = {
	id = genie_cult.105
	title = genie_cult.105.t
	desc = genie_cult.105.d
	picture = TRIBES_MEETING_eventPicture

	is_triggered_only = yes
	trigger = {
		NOT = { has_unlocked_cult = dakinshi_cult }
	}

	option = {
		name = genie_cult.105.a
		unlock_cult = dakinshi_cult
	}
}

#Unlocking Cult of Fidiya
country_event = {
	id = genie_cult.106
	title = genie_cult.106.t
	desc = genie_cult.106.d
	picture = TRIBES_MEETING_eventPicture

	is_triggered_only = yes
	trigger = {
		NOT = { has_unlocked_cult = fidiya_cult }
	}

	option = {
		name = genie_cult.106.a
		unlock_cult = fidiya_cult
	}
}

#Unlocking Cult of Jannu
country_event = {
	id = genie_cult.107
	title = genie_cult.107.t
	desc = genie_cult.107.d
	picture = TRIBES_MEETING_eventPicture

	is_triggered_only = yes
	trigger = {
		NOT = { has_unlocked_cult = jannu_cult }
	}

	option = {
		name = genie_cult.107.a
		unlock_cult = jannu_cult
	}
}

#Unlocking Cult of Tanizuland
country_event = {
	id = genie_cult.108
	title = genie_cult.108.t
	desc = genie_cult.108.d
	picture = TRIBES_MEETING_eventPicture

	is_triggered_only = yes
	trigger = {
		NOT = { has_unlocked_cult = tanizuland_cult }
	}

	option = {
		name = genie_cult.108.a
		unlock_cult = tanizuland_cult
	}
}

#Unlocking Cult of Vyzemby
country_event = {
	id = genie_cult.109
	title = genie_cult.109.t
	desc = genie_cult.109.d
	picture = TRIBES_MEETING_eventPicture

	is_triggered_only = yes
	trigger = {
		NOT = { has_unlocked_cult = vyzemby_cult }
	}

	option = {
		name = genie_cult.109.a
		unlock_cult = vyzemby_cult
	}
}

#Unlocking Cult of Darbanar
country_event = {
	id = genie_cult.110
	title = genie_cult.110.t
	desc = genie_cult.110.d
	picture = TRIBES_MEETING_eventPicture

	is_triggered_only = yes
	trigger = {
		NOT = { has_unlocked_cult = darbanar_cult }
	}

	option = {
		name = genie_cult.110.a
		unlock_cult = darbanar_cult
	}
}

#Unlocking Cult of Horasesh
country_event = {
	id = genie_cult.111
	title = genie_cult.111.t
	desc = genie_cult.111.d
	picture = TRIBES_MEETING_eventPicture

	is_triggered_only = yes
	trigger = {
		NOT = { has_unlocked_cult = horasesh_cult }
	}

	option = {
		name = genie_cult.111.a
		ai_chance = {
			factor = 10
		}
		unlock_cult = horasesh_cult
	}
}
